com/danang/paten/view/controller/ViewLoketController$5.class
com/danang/paten/view/CrudLoket.class
com/danang/paten/view/controller/ViewLayananController$1.class
com/danang/paten/route/DomisiliUsahaRoute$1.class
TestMain.class
com/danang/paten/route/TransaksiRoute.class
com/danang/paten/tablemodel/LayananTableModel.class
com/danang/paten/componen/TextBouncer$2.class
com/danang/paten/view/CrudUser$1.class
com/danang/paten/util/KirimPesan.class
com/danang/paten/componen/MyTextUI$I18nFieldView.class
com/danang/paten/util/WebDafuk.class
com/danang/paten/componen/UserDialogListener.class
com/danang/paten/controller/LoketController.class
com/danang/paten/util/OutboundMessageNotifi.class
com/danang/paten/tablemodel/LoketTableModel.class
com/danang/paten/route/SpplRoute.class
com/danang/paten/util/ServerChat.class
com/danang/paten/view/controller/ViewPetugasController$2.class
com/danang/paten/InitServer$4.class
com/danang/paten/test/GoogleTts.class
com/danang/paten/view/PanelUmum$1.class
com/danang/paten/controller/LoginController.class
com/danang/paten/view/controller/ViewLayananController$7.class
com/danang/paten/componen/PanelAntrean.class
com/danang/paten/view/PanelUmum.class
com/danang/paten/util/HandleData.class
com/danang/paten/controller/BantuanController.class
com/danang/paten/route/DomisiliUsahaRoute.class
com/danang/paten/view/menu/MenuMain.class
com/danang/paten/view/CrudLayanan$2$2.class
com/danang/paten/view/PanelUmum$2.class
com/danang/paten/view/video/TestDate.class
com/danang/paten/view/controller/ViewLoketController$4.class
com/danang/paten/controller/AdminController.class
com/danang/paten/komponent/PagedRequest.class
com/danang/paten/tablemodel/SyaratTableModel.class
com/danang/paten/route/IMBRoute.class
com/danang/paten/util/JsonTransformer.class
com/danang/paten/componen/MyTextUI.class
com/danang/paten/util/CleanUpText.class
com/danang/paten/controller/TerimaBerkasController$1.class
com/danang/paten/controller/SuratMasukController.class
com/danang/paten/view/controller/ViewLayananController$2.class
com/danang/paten/view/CrudUser$UserListener.class
com/danang/paten/route/DispensasiRoute.class
com/danang/paten/test/SoundTes.class
com/danang/paten/view/CrudLayanan$2$1.class
com/danang/paten/util/FolderListener.class
com/danang/paten/view/controller/ViewPetugasController$4.class
com/danang/paten/view/CrudLoket$LayananModel.class
com/danang/paten/componen/MyMarquee.class
com/danang/paten/test/CrudTest$cek.class
com/danang/paten/view/controller/ViewPetugasController$1.class
com/danang/paten/InitServer$5.class
com/danang/paten/util/KodeSurat.class
com/danang/paten/util/ChatTcpServer.class
com/danang/paten/util/FolderWatcher$1.class
com/danang/paten/view/controller/ViewLoketController$1.class
com/danang/paten/controller/FtpUser.class
com/danang/paten/view/SetupAwal.class
com/danang/paten/controller/TerimaBerkasController.class
com/danang/paten/view/LoginPanel.class
com/danang/paten/view/controller/ViewLayananController$6.class
com/danang/paten/controller/FtpUserManager.class
com/danang/paten/InitServer$3.class
com/danang/paten/util/PlayAudio.class
com/danang/paten/util/Colors.class
com/danang/paten/view/controller/ViewPetugasController$3.class
com/danang/paten/controller/LayananController.class
com/danang/paten/route/GetLayananRoute.class
com/danang/paten/componen/TextScrool.class
com/danang/paten/test/SudoTest$1.class
com/danang/paten/test/SudoTest.class
com/danang/paten/route/SpplRoute$1.class
com/danang/paten/InitServer$2.class
com/danang/paten/util/SmsUtil.class
com/danang/paten/util/ProsesFile.class
com/danang/paten/view/controller/ViewLayananController$5.class
com/danang/paten/view/controller/ViewLayananController.class
com/danang/paten/util/WsHandler.class
com/danang/paten/test/TestAntrian.class
com/danang/paten/view/CrudUser.class
com/danang/paten/controller/SerialController.class
com/danang/paten/controller/PenetapanController.class
com/danang/paten/view/MyLogin.class
com/danang/paten/view/CrudLoket$LayananHolder.class
com/danang/paten/util/HandleQueue.class
com/danang/paten/MainClass.class
com/danang/paten/view/controller/ViewLoketController$2.class
com/danang/paten/controller/PendudukController.class
com/danang/paten/test/TestMail.class
com/danang/paten/view/AdminFrame.class
com/danang/paten/route/ReportRoute.class
com/danang/paten/view/RunningText.class
com/danang/paten/view/CrudLayanan$2.class
com/danang/paten/componen/AnimationFrame.class
com/danang/paten/InitServer$7.class
com/danang/paten/view/RunningText$LabelListener.class
com/danang/paten/route/IUMRoute$1.class
com/danang/paten/view/controller/ViewLayananController$4.class
com/danang/paten/InitServer$1.class
com/danang/paten/view/PanelSettingVideo.class
com/danang/paten/controller/PemeriksaanController.class
com/danang/paten/Konfig.class
com/danang/paten/view/SetupAwal$1.class
com/danang/paten/view/VideoMain.class
com/danang/paten/util/HandleGammu.class
com/danang/paten/view/CrudLayanan$1.class
com/danang/paten/route/PenelitianRoute$1.class
com/danang/paten/view/controller/ViewLoketController.class
com/danang/paten/view/controller/ViewLayananController$3.class
com/danang/paten/view/CrudUser$RoleModel.class
com/danang/paten/util/MyPanel.class
com/danang/paten/controller/TrxController.class
com/danang/paten/view/CrudLoket$1.class
com/danang/paten/view/controller/ViewPetugasController.class
com/danang/paten/MyClass.class
com/danang/paten/tablemodel/PetugasDataModel.class
com/danang/paten/util/clientThread.class
com/danang/paten/controller/AntrianController.class
com/danang/paten/view/AdminFrame$1.class
com/danang/paten/util/Theme.class
com/danang/paten/view/PanelUmum$3.class
com/danang/paten/route/HORoute$1.class
com/danang/paten/InitServer.class
com/danang/paten/view/VideoMain$2$1.class
com/danang/paten/InitServer$6.class
com/danang/paten/controller/PetugasController.class
com/danang/paten/componen/ScrollText$1.class
com/danang/paten/view/controller/ViewLoketController$3.class
com/danang/paten/util/MyStt.class
com/danang/paten/test/TestHazelcast.class
com/danang/paten/util/CallerNama.class
com/danang/paten/util/InboundMessageNotifi.class
com/danang/paten/route/HomeHandler.class
com/danang/paten/controller/PenyerahanBerkasController.class
com/danang/paten/util/FolderWatcher.class
com/danang/paten/view/CrudLayanan.class
com/danang/paten/util/SmsGatewayHandler.class
com/danang/paten/view/CrudLayanan$3.class
com/danang/paten/route/IUMRoute.class
com/danang/paten/route/HORoute.class
com/danang/paten/test/TestPrinter.class
com/danang/paten/util/WsHandlerImpl.class
com/danang/paten/view/MyLogin$2.class
com/danang/paten/view/VideoMain$1.class
com/danang/paten/componen/TextBouncer$1.class
com/danang/paten/test/TestCariData.class
com/danang/paten/route/FilePostRoute.class
com/danang/paten/view/CrudUser$3.class
com/danang/paten/view/menu/MenuMain$1.class
com/danang/paten/componen/TextBouncer.class
com/danang/paten/controller/DataReport.class
com/danang/paten/view/MyLogin$1.class
com/danang/paten/controller/LaporanController.class
com/danang/paten/route/PenelitianRoute.class
com/danang/paten/view/VideoMain$2.class
com/danang/paten/view/CrudKecamatan.class
com/danang/paten/view/RunningText$LabelMouseListener.class
com/danang/paten/componen/MyPopup.class
com/danang/paten/controller/PemeriksaanController$1.class
com/danang/paten/route/DispensasiRoute$1.class
com/danang/paten/view/CrudUser$2.class
com/danang/paten/componen/MarqueePanel.class
com/danang/paten/util/HandleDataImpl.class
com/danang/paten/test/porttest.class
com/danang/paten/WebService.class
com/danang/paten/componen/TextBouncer$3.class
com/danang/paten/route/IMBRoute$1.class
com/danang/paten/controller/SuratKeluarController.class
com/danang/paten/util/Konsolidasi.class
com/danang/paten/util/OSUtil.class
com/danang/paten/componen/ScrollText.class
com/danang/paten/FtpServer.class
com/danang/paten/view/CrudLayanan$4.class
com/danang/paten/test/CrudTest.class
